%YAML 1.1
%TAG !u! tag:unity3d.com,2011:
--- !u!47 &1
QualitySettings:
  m_ObjectHideFlags: 0
  serializedVersion: 5
  m_CurrentQuality: 0
  m_QualitySettings:
  - serializedVersion: 2
    name: Fastest
    pixelLightCount: 0
    shadows: 0
    shadowResolution: 0
    shadowProjection: 1
    shadowCascades: 1
    shadowDistance: 15
    shadowNearPlaneOffset: 2
    shadowCascade2Split: 0.3333333
    shadowCascade4Split: {x: 0.06666667, y: 0.2, z: 0.4666667}
    shadowmaskMode: 0
    blendWeights: 4
    textureQuality: 1
    anisotropicTextures: 0
    antiAliasing: 0
    softParticles: 0
    softVegetation: 0
    realtimeReflectionProbes: 0
    billboardsFaceCameraPosition: 0
    vSyncCount: 0
    lodBias: 0.3
    maximumLODLevel: 0
    particleRaycastBudget: 4
    asyncUploadTimeSlice: 2
    asyncUploadBufferSize: 4
    resolutionScalingFixedDPIFactor: 1
    excludedTargetPlatforms: []
  - serializedVersion: 2
    name: Fast
    pixelLightCount: 0
    shadows: 0
    shadowResolution: 0
    shadowProjection: 1
    shadowCascades: 1
    shadowDistance: 20
    shadowNearPlaneOffset: 2
    shadowCascade2Split: 0.3333333
    shadowCascade4Split: {x: 0.06666667, y: 0.2, z: 0.4666667}
    shadowmaskMode: 0
    blendWeights: 4
    textureQuality: 0
    anisotropicTextures: 0
    antiAliasing: 0
    softParticles: 0
    softVegetation: 0
    realtimeReflectionProbes: 0
    billboardsFaceCameraPosition: 0
    vSyncCount: 0
    lodBias: 0.4
    maximumLODLevel: 0
    particleRaycastBudget: 16
    asyncUploadTimeSlice: 2
    asyncUploadBufferSize: 4
    resolutionScalingFixedDPIFactor: 1
    excludedTargetPlatforms: []
  - serializedVersion: 2
    name: Simple
    pixelLightCount: 4
    shadows: 0
    shadowResolution: 0
    shadowProjection: 1
    shadowCascades: 1
    shadowDistance: 0
    shadowNearPlaneOffset: 2
    shadowCascade2Split: 0.3333333
    shadowCascade4Split: {x: 0.06666667, y: 0.2, z: 0.4666667}
    shadowmaskMode: 0
    blendWeights: 4
    textureQuality: 0
    anisotropicTextures: 2
    antiAliasing: 0
    softParticles: 0
    softVegetation: 0
    realtimeReflectionProbes: 0
    billboardsFaceCameraPosition: 0
    vSyncCount: 0
    lodBias: 0.01
    maximumLODLevel: 0
    particleRaycastBudget: 512
    asyncUploadTimeSlice: 2
    asyncUploadBufferSize: 4
    resolutionScalingFixedDPIFactor: 1
    excludedTargetPlatforms: []
  - serializedVersion: 2
    name: Good
    pixelLightCount: 4
    shadows: 2
    shadowResolution: 0
    shadowProjection: 1
    shadowCascades: 2
    shadowDistance: 8
    shadowNearPlaneOffset: 2
    shadowCascade2Split: 0.3333333
    shadowCascade4Split: {x: 0.06666667, y: 0.2, z: 0.4666667}
    shadowmaskMode: 0
    blendWeights: 4
    textureQuality: 0
    anisotropicTextures: 2
    antiAliasing: 0
    softParticles: 0
    softVegetation: 1
    realtimeReflectionProbes: 1
    billboardsFaceCameraPosition: 1
    vSyncCount: 0
    lodBias: 0.01
    maximumLODLevel: 0
    particleRaycastBudget: 512
    asyncUploadTimeSlice: 2
    asyncUploadBufferSize: 4
    resolutionScalingFixedDPIFactor: 1
    excludedTargetPlatforms: []
  - serializedVersion: 2
    name: Beautiful
    pixelLightCount: 4
    shadows: 2
    shadowResolution: 2
    shadowProjection: 1
    shadowCascades: 4
    shadowDistance: 10
    shadowNearPlaneOffset: 2
    shadowCascade2Split: 0.3333333
    shadowCascade4Split: {x: 0.06666667, y: 0.2, z: 0.4666666}
    shadowmaskMode: 1
    blendWeights: 4
    textureQuality: 0
    anisotropicTextures: 2
    antiAliasing: 2
    softParticles: 0
    softVegetation: 1
    realtimeReflectionProbes: 1
    billboardsFaceCameraPosition: 1
    vSyncCount: 0
    lodBias: 0.01
    maximumLODLevel: 0
    particleRaycastBudget: 512
    asyncUploadTimeSlice: 2
    asyncUploadBufferSize: 4
    resolutionScalingFixedDPIFactor: 1
    excludedTargetPlatforms: []
  - serializedVersion: 2
    name: Fantastic
    pixelLightCount: 4
    shadows: 2
    shadowResolution: 3
    shadowProjection: 1
    shadowCascades: 4
    shadowDistance: 15
    shadowNearPlaneOffset: 2
    shadowCascade2Split: 0.3333333
    shadowCascade4Split: {x: 0.06666667, y: 0.2, z: 0.4666666}
    shadowmaskMode: 1
    blendWeights: 4
    textureQuality: 0
    anisotropicTextures: 2
    antiAliasing: 8
    softParticles: 0
    softVegetation: 1
    realtimeReflectionProbes: 1
    billboardsFaceCameraPosition: 1
    vSyncCount: 0
    lodBias: 0.01
    maximumLODLevel: 0
    particleRaycastBudget: 512
    asyncUploadTimeSlice: 2
    asyncUploadBufferSize: 4
    resolutionScalingFixedDPIFactor: 1
    excludedTargetPlatforms: []
  m_PerPlatformDefaultQuality:
    Android: 2
    Nintendo 3DS: 5
    Nintendo Switch: 5
    PS4: 5
    PSM: 5
    PSP2: 2
    Standalone: 5
    Tizen: 2
    WebGL: 3
    WiiU: 5
    Windows Store Apps: 5
    XboxOne: 5
    iPhone: 2
    tvOS: 2
